^E:\INTERN\GAME\LONNUOCNGOT\HAUNTEDDORM\WIN32-BUILD\CMAKEFILES\5488A2B9B63C9C0E1D2C05453CFB6FC7\SYNC_RESOURCE-HAUNTEDDORM.RULE
setlocalE:\Install\Cmake\bin\cmake.exe -E echo "Copying resources for HauntedDorm ..."if %errorlevel% neq 0 goto :cmEnd:cmEndendlocal & call :cmErrorLevel %errorlevel% & goto :cmDone:cmErrorLevelexit /b %1:cmDoneif %errorlevel% neq 0 goto :VCEnd
^E:\INTERN\GAME\LONNUOCNGOT\HAUNTEDDORM\CMAKELISTS.TXT
setlocalE:\Install\Cmake\bin\cmake.exe -SE:/intern/Game/lonnuocngot/HauntedDorm -BE:/intern/Game/lonnuocngot/HauntedDorm/win32-build --check-stamp-file E:/intern/Game/lonnuocngot/HauntedDorm/win32-build/CMakeFiles/generate.stampif %errorlevel% neq 0 goto :cmEnd:cmEndendlocal & call :cmErrorLevel %errorlevel% & goto :cmDone:cmErrorLevelexit /b %1:cmDoneif %errorlevel% neq 0 goto :VCEnd
