^E:\intern\Game\lonnuocngot\HauntedDorm\win32-build\HauntedDorm.vcxproj
E:\intern\Game\lonnuocngot\HauntedDorm\win32-build\Debug\HauntedDorm.lib
E:\intern\Game\lonnuocngot\HauntedDorm\win32-build\Debug\HauntedDorm.exp
^E:\intern\Game\lonnuocngot\HauntedDorm\win32-build\HauntedDorm.vcxproj
E:\intern\Game\lonnuocngot\HauntedDorm\win32-build\Debug\HauntedDorm.lib
E:\intern\Game\lonnuocngot\HauntedDorm\win32-build\Debug\HauntedDorm.exp
^E:\intern\Game\lonnuocngot\HauntedDorm\win32-build\HauntedDorm.vcxproj
E:\intern\Game\lonnuocngot\HauntedDorm\win32-build\Debug\HauntedDorm.lib
E:\intern\Game\lonnuocngot\HauntedDorm\win32-build\Debug\HauntedDorm.exp
^E:\intern\Game\lonnuocngot\HauntedDorm\win32-build\HauntedDorm.vcxproj
E:\intern\Game\lonnuocngot\HauntedDorm\win32-build\Debug\HauntedDorm.lib
E:\intern\Game\lonnuocngot\HauntedDorm\win32-build\Debug\HauntedDorm.exp
^E:\intern\Game\lonnuocngot\HauntedDorm\win32-build\HauntedDorm.vcxproj
E:\intern\Game\lonnuocngot\HauntedDorm\win32-build\Debug\HauntedDorm.lib
E:\intern\Game\lonnuocngot\HauntedDorm\win32-build\Debug\HauntedDorm.exp
^E:\intern\Game\lonnuocngot\HauntedDorm\win32-build\HauntedDorm.vcxproj
E:\intern\Game\lonnuocngot\HauntedDorm\win32-build\Debug\HauntedDorm.lib
E:\intern\Game\lonnuocngot\HauntedDorm\win32-build\Debug\HauntedDorm.exp
^E:\intern\Game\lonnuocngot\HauntedDorm\win32-build\HauntedDorm.vcxproj
E:\intern\Game\lonnuocngot\HauntedDorm\win32-build\Debug\HauntedDorm.lib
E:\intern\Game\lonnuocngot\HauntedDorm\win32-build\Debug\HauntedDorm.exp
^E:\intern\Game\lonnuocngot\HauntedDorm\win32-build\HauntedDorm.vcxproj
E:\intern\Game\lonnuocngot\HauntedDorm\win32-build\Debug\HauntedDorm.lib
E:\intern\Game\lonnuocngot\HauntedDorm\win32-build\Debug\HauntedDorm.exp
^E:\intern\Game\lonnuocngot\HauntedDorm\win32-build\HauntedDorm.vcxproj
E:\intern\Game\lonnuocngot\HauntedDorm\win32-build\Debug\HauntedDorm.lib
E:\intern\Game\lonnuocngot\HauntedDorm\win32-build\Debug\HauntedDorm.exp
^E:\intern\Game\lonnuocngot\HauntedDorm\win32-build\HauntedDorm.vcxproj
E:\intern\Game\lonnuocngot\HauntedDorm\win32-build\Debug\HauntedDorm.lib
E:\intern\Game\lonnuocngot\HauntedDorm\win32-build\Debug\HauntedDorm.exp
^E:\intern\Game\lonnuocngot\HauntedDorm\win32-build\HauntedDorm.vcxproj
E:\intern\Game\lonnuocngot\HauntedDorm\win32-build\Debug\HauntedDorm.lib
E:\intern\Game\lonnuocngot\HauntedDorm\win32-build\Debug\HauntedDorm.exp
^E:\intern\Game\lonnuocngot\HauntedDorm\win32-build\HauntedDorm.vcxproj
E:\intern\Game\lonnuocngot\HauntedDorm\win32-build\Debug\HauntedDorm.lib
E:\intern\Game\lonnuocngot\HauntedDorm\win32-build\Debug\HauntedDorm.exp
^E:\intern\Game\lonnuocngot\HauntedDorm\win32-build\HauntedDorm.vcxproj
E:\intern\Game\lonnuocngot\HauntedDorm\win32-build\Debug\HauntedDorm.lib
E:\intern\Game\lonnuocngot\HauntedDorm\win32-build\Debug\HauntedDorm.exp
^E:\intern\Game\lonnuocngot\HauntedDorm\win32-build\HauntedDorm.vcxproj
E:\intern\Game\lonnuocngot\HauntedDorm\win32-build\Debug\HauntedDorm.lib
E:\intern\Game\lonnuocngot\HauntedDorm\win32-build\Debug\HauntedDorm.exp
^E:\intern\Game\lonnuocngot\HauntedDorm\win32-build\HauntedDorm.vcxproj
E:\intern\Game\lonnuocngot\HauntedDorm\win32-build\Debug\HauntedDorm.lib
E:\intern\Game\lonnuocngot\HauntedDorm\win32-build\Debug\HauntedDorm.exp
^E:\intern\Game\lonnuocngot\HauntedDorm\win32-build\HauntedDorm.vcxproj
E:\intern\Game\lonnuocngot\HauntedDorm\win32-build\Debug\HauntedDorm.lib
E:\intern\Game\lonnuocngot\HauntedDorm\win32-build\Debug\HauntedDorm.exp
^E:\intern\Game\lonnuocngot\HauntedDorm\win32-build\HauntedDorm.vcxproj
E:\intern\Game\lonnuocngot\HauntedDorm\win32-build\Debug\HauntedDorm.lib
E:\intern\Game\lonnuocngot\HauntedDorm\win32-build\Debug\HauntedDorm.exp
^E:\intern\Game\lonnuocngot\HauntedDorm\win32-build\HauntedDorm.vcxproj
E:\intern\Game\lonnuocngot\HauntedDorm\win32-build\Debug\HauntedDorm.lib
E:\intern\Game\lonnuocngot\HauntedDorm\win32-build\Debug\HauntedDorm.exp
^E:\intern\Game\lonnuocngot\HauntedDorm\win32-build\HauntedDorm.vcxproj
E:\intern\Game\lonnuocngot\HauntedDorm\win32-build\Debug\HauntedDorm.lib
E:\intern\Game\lonnuocngot\HauntedDorm\win32-build\Debug\HauntedDorm.exp
^E:\intern\Game\lonnuocngot\HauntedDorm\win32-build\HauntedDorm.vcxproj
E:\intern\Game\lonnuocngot\HauntedDorm\win32-build\Debug\HauntedDorm.lib
E:\intern\Game\lonnuocngot\HauntedDorm\win32-build\Debug\HauntedDorm.exp
^E:\intern\Game\lonnuocngot\HauntedDorm\win32-build\HauntedDorm.vcxproj
E:\intern\Game\lonnuocngot\HauntedDorm\win32-build\Debug\HauntedDorm.lib
E:\intern\Game\lonnuocngot\HauntedDorm\win32-build\Debug\HauntedDorm.exp
^E:\intern\Game\lonnuocngot\HauntedDorm\win32-build\HauntedDorm.vcxproj
E:\intern\Game\lonnuocngot\HauntedDorm\win32-build\Debug\HauntedDorm.lib
E:\intern\Game\lonnuocngot\HauntedDorm\win32-build\Debug\HauntedDorm.exp
^E:\intern\Game\lonnuocngot\HauntedDorm\win32-build\HauntedDorm.vcxproj
E:\intern\Game\lonnuocngot\HauntedDorm\win32-build\Debug\HauntedDorm.lib
E:\intern\Game\lonnuocngot\HauntedDorm\win32-build\Debug\HauntedDorm.exp
^E:\intern\Game\lonnuocngot\HauntedDorm\win32-build\HauntedDorm.vcxproj
E:\intern\Game\lonnuocngot\HauntedDorm\win32-build\Debug\HauntedDorm.lib
E:\intern\Game\lonnuocngot\HauntedDorm\win32-build\Debug\HauntedDorm.exp
^E:\intern\Game\lonnuocngot\HauntedDorm\win32-build\HauntedDorm.vcxproj
E:\intern\Game\lonnuocngot\HauntedDorm\win32-build\Debug\HauntedDorm.lib
E:\intern\Game\lonnuocngot\HauntedDorm\win32-build\Debug\HauntedDorm.exp
^E:\intern\Game\lonnuocngot\HauntedDorm\win32-build\HauntedDorm.vcxproj
E:\intern\Game\lonnuocngot\HauntedDorm\win32-build\Debug\HauntedDorm.lib
E:\intern\Game\lonnuocngot\HauntedDorm\win32-build\Debug\HauntedDorm.exp
^E:\intern\Game\lonnuocngot\HauntedDorm\win32-build\HauntedDorm.vcxproj
E:\intern\Game\lonnuocngot\HauntedDorm\win32-build\Debug\HauntedDorm.lib
E:\intern\Game\lonnuocngot\HauntedDorm\win32-build\Debug\HauntedDorm.exp
^E:\intern\Game\lonnuocngot\HauntedDorm\win32-build\HauntedDorm.vcxproj
E:\intern\Game\lonnuocngot\HauntedDorm\win32-build\Debug\HauntedDorm.lib
E:\intern\Game\lonnuocngot\HauntedDorm\win32-build\Debug\HauntedDorm.exp
^E:\intern\Game\lonnuocngot\HauntedDorm\win32-build\HauntedDorm.vcxproj
E:\intern\Game\lonnuocngot\HauntedDorm\win32-build\Debug\HauntedDorm.lib
E:\intern\Game\lonnuocngot\HauntedDorm\win32-build\Debug\HauntedDorm.exp
^E:\intern\Game\lonnuocngot\HauntedDorm\win32-build\HauntedDorm.vcxproj
E:\intern\Game\lonnuocngot\HauntedDorm\win32-build\Debug\HauntedDorm.lib
E:\intern\Game\lonnuocngot\HauntedDorm\win32-build\Debug\HauntedDorm.exp
^E:\intern\Game\lonnuocngot\HauntedDorm\win32-build\HauntedDorm.vcxproj
E:\intern\Game\lonnuocngot\HauntedDorm\win32-build\Debug\HauntedDorm.lib
E:\intern\Game\lonnuocngot\HauntedDorm\win32-build\Debug\HauntedDorm.exp
^E:\intern\Game\lonnuocngot\HauntedDorm\win32-build\HauntedDorm.vcxproj
E:\intern\Game\lonnuocngot\HauntedDorm\win32-build\Debug\HauntedDorm.lib
E:\intern\Game\lonnuocngot\HauntedDorm\win32-build\Debug\HauntedDorm.exp
^E:\intern\Game\lonnuocngot\HauntedDorm\win32-build\HauntedDorm.vcxproj
E:\intern\Game\lonnuocngot\HauntedDorm\win32-build\Debug\HauntedDorm.lib
E:\intern\Game\lonnuocngot\HauntedDorm\win32-build\Debug\HauntedDorm.exp
^E:\intern\Game\lonnuocngot\HauntedDorm\win32-build\HauntedDorm.vcxproj
E:\intern\Game\lonnuocngot\HauntedDorm\win32-build\Debug\HauntedDorm.lib
E:\intern\Game\lonnuocngot\HauntedDorm\win32-build\Debug\HauntedDorm.exp
^E:\intern\Game\lonnuocngot\HauntedDorm\win32-build\HauntedDorm.vcxproj
E:\intern\Game\lonnuocngot\HauntedDorm\win32-build\Debug\HauntedDorm.lib
E:\intern\Game\lonnuocngot\HauntedDorm\win32-build\Debug\HauntedDorm.exp
^E:\intern\Game\lonnuocngot\HauntedDorm\win32-build\HauntedDorm.vcxproj
E:\intern\Game\lonnuocngot\HauntedDorm\win32-build\Debug\HauntedDorm.lib
E:\intern\Game\lonnuocngot\HauntedDorm\win32-build\Debug\HauntedDorm.exp
^E:\intern\Game\lonnuocngot\HauntedDorm\win32-build\HauntedDorm.vcxproj
E:\intern\Game\lonnuocngot\HauntedDorm\win32-build\Debug\HauntedDorm.lib
E:\intern\Game\lonnuocngot\HauntedDorm\win32-build\Debug\HauntedDorm.exp
^E:\intern\Game\lonnuocngot\HauntedDorm\win32-build\HauntedDorm.vcxproj
E:\intern\Game\lonnuocngot\HauntedDorm\win32-build\Debug\HauntedDorm.lib
E:\intern\Game\lonnuocngot\HauntedDorm\win32-build\Debug\HauntedDorm.exp
^E:\intern\Game\lonnuocngot\HauntedDorm\win32-build\HauntedDorm.vcxproj
E:\intern\Game\lonnuocngot\HauntedDorm\win32-build\Debug\HauntedDorm.lib
E:\intern\Game\lonnuocngot\HauntedDorm\win32-build\Debug\HauntedDorm.exp
^E:\intern\Game\lonnuocngot\HauntedDorm\win32-build\HauntedDorm.vcxproj
E:\intern\Game\lonnuocngot\HauntedDorm\win32-build\Debug\HauntedDorm.lib
E:\intern\Game\lonnuocngot\HauntedDorm\win32-build\Debug\HauntedDorm.exp
^E:\intern\Game\lonnuocngot\HauntedDorm\win32-build\HauntedDorm.vcxproj
E:\intern\Game\lonnuocngot\HauntedDorm\win32-build\Debug\HauntedDorm.lib
E:\intern\Game\lonnuocngot\HauntedDorm\win32-build\Debug\HauntedDorm.exp
^E:\intern\Game\lonnuocngot\HauntedDorm\win32-build\HauntedDorm.vcxproj
E:\intern\Game\lonnuocngot\HauntedDorm\win32-build\Debug\HauntedDorm.lib
E:\intern\Game\lonnuocngot\HauntedDorm\win32-build\Debug\HauntedDorm.exp
^E:\intern\Game\lonnuocngot\HauntedDorm\win32-build\HauntedDorm.vcxproj
E:\intern\Game\lonnuocngot\HauntedDorm\win32-build\Debug\HauntedDorm.lib
E:\intern\Game\lonnuocngot\HauntedDorm\win32-build\Debug\HauntedDorm.exp
^E:\intern\Game\lonnuocngot\HauntedDorm\win32-build\HauntedDorm.vcxproj
E:\intern\Game\lonnuocngot\HauntedDorm\win32-build\Debug\HauntedDorm.lib
E:\intern\Game\lonnuocngot\HauntedDorm\win32-build\Debug\HauntedDorm.exp
^E:\intern\Game\lonnuocngot\HauntedDorm\win32-build\HauntedDorm.vcxproj
E:\intern\Game\lonnuocngot\HauntedDorm\win32-build\Debug\HauntedDorm.lib
E:\intern\Game\lonnuocngot\HauntedDorm\win32-build\Debug\HauntedDorm.exp
^E:\intern\Game\lonnuocngot\HauntedDorm\win32-build\HauntedDorm.vcxproj
E:\intern\Game\lonnuocngot\HauntedDorm\win32-build\Debug\HauntedDorm.lib
E:\intern\Game\lonnuocngot\HauntedDorm\win32-build\Debug\HauntedDorm.exp
^E:\intern\Game\lonnuocngot\HauntedDorm\win32-build\HauntedDorm.vcxproj
E:\intern\Game\lonnuocngot\HauntedDorm\win32-build\Debug\HauntedDorm.lib
E:\intern\Game\lonnuocngot\HauntedDorm\win32-build\Debug\HauntedDorm.exp
^E:\intern\Game\lonnuocngot\HauntedDorm\win32-build\HauntedDorm.vcxproj
E:\intern\Game\lonnuocngot\HauntedDorm\win32-build\Debug\HauntedDorm.lib
E:\intern\Game\lonnuocngot\HauntedDorm\win32-build\Debug\HauntedDorm.exp
^E:\intern\Game\lonnuocngot\HauntedDorm\win32-build\HauntedDorm.vcxproj
E:\intern\Game\lonnuocngot\HauntedDorm\win32-build\Debug\HauntedDorm.lib
E:\intern\Game\lonnuocngot\HauntedDorm\win32-build\Debug\HauntedDorm.exp
^E:\intern\Game\lonnuocngot\HauntedDorm\win32-build\HauntedDorm.vcxproj
E:\intern\Game\lonnuocngot\HauntedDorm\win32-build\Debug\HauntedDorm.lib
E:\intern\Game\lonnuocngot\HauntedDorm\win32-build\Debug\HauntedDorm.exp
^E:\intern\Game\lonnuocngot\HauntedDorm\win32-build\HauntedDorm.vcxproj
E:\intern\Game\lonnuocngot\HauntedDorm\win32-build\Debug\HauntedDorm.lib
E:\intern\Game\lonnuocngot\HauntedDorm\win32-build\Debug\HauntedDorm.exp
^E:\intern\Game\lonnuocngot\HauntedDorm\win32-build\HauntedDorm.vcxproj
E:\intern\Game\lonnuocngot\HauntedDorm\win32-build\Debug\HauntedDorm.lib
E:\intern\Game\lonnuocngot\HauntedDorm\win32-build\Debug\HauntedDorm.exp
^E:\intern\Game\lonnuocngot\HauntedDorm\win32-build\HauntedDorm.vcxproj
E:\intern\Game\lonnuocngot\HauntedDorm\win32-build\Debug\HauntedDorm.lib
E:\intern\Game\lonnuocngot\HauntedDorm\win32-build\Debug\HauntedDorm.exp
^E:\intern\Game\lonnuocngot\HauntedDorm\win32-build\HauntedDorm.vcxproj
E:\intern\Game\lonnuocngot\HauntedDorm\win32-build\Debug\HauntedDorm.lib
E:\intern\Game\lonnuocngot\HauntedDorm\win32-build\Debug\HauntedDorm.exp
^E:\intern\Game\lonnuocngot\HauntedDorm\win32-build\HauntedDorm.vcxproj
E:\intern\Game\lonnuocngot\HauntedDorm\win32-build\Debug\HauntedDorm.lib
E:\intern\Game\lonnuocngot\HauntedDorm\win32-build\Debug\HauntedDorm.exp
^E:\intern\Game\lonnuocngot\HauntedDorm\win32-build\HauntedDorm.vcxproj
E:\intern\Game\lonnuocngot\HauntedDorm\win32-build\Debug\HauntedDorm.lib
E:\intern\Game\lonnuocngot\HauntedDorm\win32-build\Debug\HauntedDorm.exp
^E:\intern\Game\lonnuocngot\HauntedDorm\win32-build\HauntedDorm.vcxproj
E:\intern\Game\lonnuocngot\HauntedDorm\win32-build\Debug\HauntedDorm.lib
E:\intern\Game\lonnuocngot\HauntedDorm\win32-build\Debug\HauntedDorm.exp
^E:\intern\Game\lonnuocngot\HauntedDorm\win32-build\HauntedDorm.vcxproj
E:\intern\Game\lonnuocngot\HauntedDorm\win32-build\Debug\HauntedDorm.lib
E:\intern\Game\lonnuocngot\HauntedDorm\win32-build\Debug\HauntedDorm.exp
^E:\intern\Game\lonnuocngot\HauntedDorm\win32-build\HauntedDorm.vcxproj
E:\intern\Game\lonnuocngot\HauntedDorm\win32-build\Debug\HauntedDorm.lib
E:\intern\Game\lonnuocngot\HauntedDorm\win32-build\Debug\HauntedDorm.exp
^E:\intern\Game\lonnuocngot\HauntedDorm\win32-build\HauntedDorm.vcxproj
E:\intern\Game\lonnuocngot\HauntedDorm\win32-build\Debug\HauntedDorm.lib
E:\intern\Game\lonnuocngot\HauntedDorm\win32-build\Debug\HauntedDorm.exp
^E:\intern\Game\lonnuocngot\HauntedDorm\win32-build\HauntedDorm.vcxproj
E:\intern\Game\lonnuocngot\HauntedDorm\win32-build\Debug\HauntedDorm.lib
E:\intern\Game\lonnuocngot\HauntedDorm\win32-build\Debug\HauntedDorm.exp
^E:\intern\Game\lonnuocngot\HauntedDorm\win32-build\HauntedDorm.vcxproj
E:\intern\Game\lonnuocngot\HauntedDorm\win32-build\Debug\HauntedDorm.lib
E:\intern\Game\lonnuocngot\HauntedDorm\win32-build\Debug\HauntedDorm.exp
^E:\intern\Game\lonnuocngot\HauntedDorm\win32-build\HauntedDorm.vcxproj
E:\intern\Game\lonnuocngot\HauntedDorm\win32-build\Debug\HauntedDorm.lib
E:\intern\Game\lonnuocngot\HauntedDorm\win32-build\Debug\HauntedDorm.exp
^E:\intern\Game\lonnuocngot\HauntedDorm\win32-build\HauntedDorm.vcxproj
E:\intern\Game\lonnuocngot\HauntedDorm\win32-build\Debug\HauntedDorm.lib
E:\intern\Game\lonnuocngot\HauntedDorm\win32-build\Debug\HauntedDorm.exp
^E:\intern\Game\lonnuocngot\HauntedDorm\win32-build\HauntedDorm.vcxproj
E:\intern\Game\lonnuocngot\HauntedDorm\win32-build\Debug\HauntedDorm.lib
E:\intern\Game\lonnuocngot\HauntedDorm\win32-build\Debug\HauntedDorm.exp
^E:\intern\Game\lonnuocngot\HauntedDorm\win32-build\HauntedDorm.vcxproj
E:\intern\Game\lonnuocngot\HauntedDorm\win32-build\Debug\HauntedDorm.lib
E:\intern\Game\lonnuocngot\HauntedDorm\win32-build\Debug\HauntedDorm.exp
^E:\intern\Game\lonnuocngot\HauntedDorm\win32-build\HauntedDorm.vcxproj
E:\intern\Game\lonnuocngot\HauntedDorm\win32-build\Debug\HauntedDorm.lib
E:\intern\Game\lonnuocngot\HauntedDorm\win32-build\Debug\HauntedDorm.exp
^E:\intern\Game\lonnuocngot\HauntedDorm\win32-build\HauntedDorm.vcxproj
E:\intern\Game\lonnuocngot\HauntedDorm\win32-build\Debug\HauntedDorm.lib
E:\intern\Game\lonnuocngot\HauntedDorm\win32-build\Debug\HauntedDorm.exp
^E:\intern\Game\lonnuocngot\HauntedDorm\win32-build\HauntedDorm.vcxproj
E:\intern\Game\lonnuocngot\HauntedDorm\win32-build\Debug\HauntedDorm.lib
E:\intern\Game\lonnuocngot\HauntedDorm\win32-build\Debug\HauntedDorm.exp
^E:\intern\Game\lonnuocngot\HauntedDorm\win32-build\HauntedDorm.vcxproj
E:\intern\Game\lonnuocngot\HauntedDorm\win32-build\Debug\HauntedDorm.lib
E:\intern\Game\lonnuocngot\HauntedDorm\win32-build\Debug\HauntedDorm.exp
^E:\intern\Game\lonnuocngot\HauntedDorm\win32-build\HauntedDorm.vcxproj
E:\intern\Game\lonnuocngot\HauntedDorm\win32-build\Debug\HauntedDorm.lib
E:\intern\Game\lonnuocngot\HauntedDorm\win32-build\Debug\HauntedDorm.exp
^E:\intern\Game\lonnuocngot\HauntedDorm\win32-build\HauntedDorm.vcxproj
E:\intern\Game\lonnuocngot\HauntedDorm\win32-build\Debug\HauntedDorm.lib
E:\intern\Game\lonnuocngot\HauntedDorm\win32-build\Debug\HauntedDorm.exp
^E:\intern\Game\lonnuocngot\HauntedDorm\win32-build\HauntedDorm.vcxproj
E:\intern\Game\lonnuocngot\HauntedDorm\win32-build\Debug\HauntedDorm.lib
E:\intern\Game\lonnuocngot\HauntedDorm\win32-build\Debug\HauntedDorm.exp
^E:\intern\Game\lonnuocngot\HauntedDorm\win32-build\HauntedDorm.vcxproj
E:\intern\Game\lonnuocngot\HauntedDorm\win32-build\Debug\HauntedDorm.lib
E:\intern\Game\lonnuocngot\HauntedDorm\win32-build\Debug\HauntedDorm.exp
^E:\intern\Game\lonnuocngot\HauntedDorm\win32-build\HauntedDorm.vcxproj
E:\intern\Game\lonnuocngot\HauntedDorm\win32-build\Debug\HauntedDorm.lib
E:\intern\Game\lonnuocngot\HauntedDorm\win32-build\Debug\HauntedDorm.exp
^E:\intern\Game\lonnuocngot\HauntedDorm\win32-build\HauntedDorm.vcxproj
E:\intern\Game\lonnuocngot\HauntedDorm\win32-build\Debug\HauntedDorm.lib
E:\intern\Game\lonnuocngot\HauntedDorm\win32-build\Debug\HauntedDorm.exp
^E:\intern\Game\lonnuocngot\HauntedDorm\win32-build\HauntedDorm.vcxproj
E:\intern\Game\lonnuocngot\HauntedDorm\win32-build\Debug\HauntedDorm.lib
E:\intern\Game\lonnuocngot\HauntedDorm\win32-build\Debug\HauntedDorm.exp
^E:\intern\Game\lonnuocngot\HauntedDorm\win32-build\HauntedDorm.vcxproj
E:\intern\Game\lonnuocngot\HauntedDorm\win32-build\Debug\HauntedDorm.lib
E:\intern\Game\lonnuocngot\HauntedDorm\win32-build\Debug\HauntedDorm.exp
^E:\intern\Game\lonnuocngot\HauntedDorm\win32-build\HauntedDorm.vcxproj
E:\intern\Game\lonnuocngot\HauntedDorm\win32-build\Debug\HauntedDorm.lib
E:\intern\Game\lonnuocngot\HauntedDorm\win32-build\Debug\HauntedDorm.exp
^E:\intern\Game\lonnuocngot\HauntedDorm\win32-build\HauntedDorm.vcxproj
E:\intern\Game\lonnuocngot\HauntedDorm\win32-build\Debug\HauntedDorm.lib
E:\intern\Game\lonnuocngot\HauntedDorm\win32-build\Debug\HauntedDorm.exp
^E:\intern\Game\lonnuocngot\HauntedDorm\win32-build\HauntedDorm.vcxproj
E:\intern\Game\lonnuocngot\HauntedDorm\win32-build\Debug\HauntedDorm.lib
E:\intern\Game\lonnuocngot\HauntedDorm\win32-build\Debug\HauntedDorm.exp
^E:\intern\Game\lonnuocngot\HauntedDorm\win32-build\HauntedDorm.vcxproj
E:\intern\Game\lonnuocngot\HauntedDorm\win32-build\Debug\HauntedDorm.lib
E:\intern\Game\lonnuocngot\HauntedDorm\win32-build\Debug\HauntedDorm.exp
^E:\intern\Game\lonnuocngot\HauntedDorm\win32-build\HauntedDorm.vcxproj
E:\intern\Game\lonnuocngot\HauntedDorm\win32-build\Debug\HauntedDorm.lib
E:\intern\Game\lonnuocngot\HauntedDorm\win32-build\Debug\HauntedDorm.exp
^E:\intern\Game\lonnuocngot\HauntedDorm\win32-build\HauntedDorm.vcxproj
E:\intern\Game\lonnuocngot\HauntedDorm\win32-build\Debug\HauntedDorm.lib
E:\intern\Game\lonnuocngot\HauntedDorm\win32-build\Debug\HauntedDorm.exp
^E:\intern\Game\lonnuocngot\HauntedDorm\win32-build\HauntedDorm.vcxproj
E:\intern\Game\lonnuocngot\HauntedDorm\win32-build\Debug\HauntedDorm.lib
E:\intern\Game\lonnuocngot\HauntedDorm\win32-build\Debug\HauntedDorm.exp
^E:\intern\Game\lonnuocngot\HauntedDorm\win32-build\HauntedDorm.vcxproj
E:\intern\Game\lonnuocngot\HauntedDorm\win32-build\Debug\HauntedDorm.lib
E:\intern\Game\lonnuocngot\HauntedDorm\win32-build\Debug\HauntedDorm.exp
^E:\intern\Game\lonnuocngot\HauntedDorm\win32-build\HauntedDorm.vcxproj
E:\intern\Game\lonnuocngot\HauntedDorm\win32-build\Debug\HauntedDorm.lib
E:\intern\Game\lonnuocngot\HauntedDorm\win32-build\Debug\HauntedDorm.exp
^E:\intern\Game\lonnuocngot\HauntedDorm\win32-build\HauntedDorm.vcxproj
E:\intern\Game\lonnuocngot\HauntedDorm\win32-build\Debug\HauntedDorm.lib
E:\intern\Game\lonnuocngot\HauntedDorm\win32-build\Debug\HauntedDorm.exp
^E:\intern\Game\lonnuocngot\HauntedDorm\win32-build\HauntedDorm.vcxproj
E:\intern\Game\lonnuocngot\HauntedDorm\win32-build\Debug\HauntedDorm.lib
E:\intern\Game\lonnuocngot\HauntedDorm\win32-build\Debug\HauntedDorm.exp
^E:\intern\Game\lonnuocngot\HauntedDorm\win32-build\HauntedDorm.vcxproj
E:\intern\Game\lonnuocngot\HauntedDorm\win32-build\Debug\HauntedDorm.lib
E:\intern\Game\lonnuocngot\HauntedDorm\win32-build\Debug\HauntedDorm.exp
^E:\intern\Game\lonnuocngot\HauntedDorm\win32-build\HauntedDorm.vcxproj
E:\intern\Game\lonnuocngot\HauntedDorm\win32-build\Debug\HauntedDorm.lib
E:\intern\Game\lonnuocngot\HauntedDorm\win32-build\Debug\HauntedDorm.exp
^E:\intern\Game\lonnuocngot\HauntedDorm\win32-build\HauntedDorm.vcxproj
E:\intern\Game\lonnuocngot\HauntedDorm\win32-build\Debug\HauntedDorm.lib
E:\intern\Game\lonnuocngot\HauntedDorm\win32-build\Debug\HauntedDorm.exp
^E:\intern\Game\lonnuocngot\HauntedDorm\win32-build\HauntedDorm.vcxproj
E:\intern\Game\lonnuocngot\HauntedDorm\win32-build\Debug\HauntedDorm.lib
E:\intern\Game\lonnuocngot\HauntedDorm\win32-build\Debug\HauntedDorm.exp
^E:\intern\Game\lonnuocngot\HauntedDorm\win32-build\HauntedDorm.vcxproj
E:\intern\Game\lonnuocngot\HauntedDorm\win32-build\Debug\HauntedDorm.lib
E:\intern\Game\lonnuocngot\HauntedDorm\win32-build\Debug\HauntedDorm.exp
^E:\intern\Game\lonnuocngot\HauntedDorm\win32-build\HauntedDorm.vcxproj
E:\intern\Game\lonnuocngot\HauntedDorm\win32-build\Debug\HauntedDorm.lib
E:\intern\Game\lonnuocngot\HauntedDorm\win32-build\Debug\HauntedDorm.exp
^E:\intern\Game\lonnuocngot\HauntedDorm\win32-build\HauntedDorm.vcxproj
E:\intern\Game\lonnuocngot\HauntedDorm\win32-build\Debug\HauntedDorm.lib
E:\intern\Game\lonnuocngot\HauntedDorm\win32-build\Debug\HauntedDorm.exp
^E:\intern\Game\lonnuocngot\HauntedDorm\win32-build\HauntedDorm.vcxproj
E:\intern\Game\lonnuocngot\HauntedDorm\win32-build\Debug\HauntedDorm.lib
E:\intern\Game\lonnuocngot\HauntedDorm\win32-build\Debug\HauntedDorm.exp
^E:\intern\Game\lonnuocngot\HauntedDorm\win32-build\HauntedDorm.vcxproj
E:\intern\Game\lonnuocngot\HauntedDorm\win32-build\Debug\HauntedDorm.lib
E:\intern\Game\lonnuocngot\HauntedDorm\win32-build\Debug\HauntedDorm.exp
^E:\intern\Game\lonnuocngot\HauntedDorm\win32-build\HauntedDorm.vcxproj
E:\intern\Game\lonnuocngot\HauntedDorm\win32-build\Debug\HauntedDorm.lib
E:\intern\Game\lonnuocngot\HauntedDorm\win32-build\Debug\HauntedDorm.exp
^E:\intern\Game\lonnuocngot\HauntedDorm\win32-build\HauntedDorm.vcxproj
E:\intern\Game\lonnuocngot\HauntedDorm\win32-build\Debug\HauntedDorm.lib
E:\intern\Game\lonnuocngot\HauntedDorm\win32-build\Debug\HauntedDorm.exp
^E:\intern\Game\lonnuocngot\HauntedDorm\win32-build\HauntedDorm.vcxproj
E:\intern\Game\lonnuocngot\HauntedDorm\win32-build\Debug\HauntedDorm.lib
E:\intern\Game\lonnuocngot\HauntedDorm\win32-build\Debug\HauntedDorm.exp
^E:\intern\Game\lonnuocngot\HauntedDorm\win32-build\HauntedDorm.vcxproj
E:\intern\Game\lonnuocngot\HauntedDorm\win32-build\Debug\HauntedDorm.lib
E:\intern\Game\lonnuocngot\HauntedDorm\win32-build\Debug\HauntedDorm.exp
^E:\intern\Game\lonnuocngot\HauntedDorm\win32-build\HauntedDorm.vcxproj
E:\intern\Game\lonnuocngot\HauntedDorm\win32-build\Debug\HauntedDorm.lib
E:\intern\Game\lonnuocngot\HauntedDorm\win32-build\Debug\HauntedDorm.exp
^E:\intern\Game\lonnuocngot\HauntedDorm\win32-build\HauntedDorm.vcxproj
E:\intern\Game\lonnuocngot\HauntedDorm\win32-build\Debug\HauntedDorm.lib
E:\intern\Game\lonnuocngot\HauntedDorm\win32-build\Debug\HauntedDorm.exp
^E:\intern\Game\lonnuocngot\HauntedDorm\win32-build\HauntedDorm.vcxproj
E:\intern\Game\lonnuocngot\HauntedDorm\win32-build\Debug\HauntedDorm.lib
E:\intern\Game\lonnuocngot\HauntedDorm\win32-build\Debug\HauntedDorm.exp
^E:\intern\Game\lonnuocngot\HauntedDorm\win32-build\HauntedDorm.vcxproj
E:\intern\Game\lonnuocngot\HauntedDorm\win32-build\Debug\HauntedDorm.lib
E:\intern\Game\lonnuocngot\HauntedDorm\win32-build\Debug\HauntedDorm.exp
^E:\intern\Game\lonnuocngot\HauntedDorm\win32-build\HauntedDorm.vcxproj
E:\intern\Game\lonnuocngot\HauntedDorm\win32-build\Debug\HauntedDorm.lib
E:\intern\Game\lonnuocngot\HauntedDorm\win32-build\Debug\HauntedDorm.exp
^E:\intern\Game\lonnuocngot\HauntedDorm\win32-build\HauntedDorm.vcxproj
E:\intern\Game\lonnuocngot\HauntedDorm\win32-build\Debug\HauntedDorm.lib
E:\intern\Game\lonnuocngot\HauntedDorm\win32-build\Debug\HauntedDorm.exp
^E:\intern\Game\lonnuocngot\HauntedDorm\win32-build\HauntedDorm.vcxproj
E:\intern\Game\lonnuocngot\HauntedDorm\win32-build\Debug\HauntedDorm.lib
E:\intern\Game\lonnuocngot\HauntedDorm\win32-build\Debug\HauntedDorm.exp
^E:\intern\Game\lonnuocngot\HauntedDorm\win32-build\HauntedDorm.vcxproj
E:\intern\Game\lonnuocngot\HauntedDorm\win32-build\Debug\HauntedDorm.lib
E:\intern\Game\lonnuocngot\HauntedDorm\win32-build\Debug\HauntedDorm.exp
^E:\intern\Game\lonnuocngot\HauntedDorm\win32-build\HauntedDorm.vcxproj
E:\intern\Game\lonnuocngot\HauntedDorm\win32-build\Debug\HauntedDorm.lib
E:\intern\Game\lonnuocngot\HauntedDorm\win32-build\Debug\HauntedDorm.exp
^E:\intern\Game\lonnuocngot\HauntedDorm\win32-build\HauntedDorm.vcxproj
E:\intern\Game\lonnuocngot\HauntedDorm\win32-build\Debug\HauntedDorm.lib
E:\intern\Game\lonnuocngot\HauntedDorm\win32-build\Debug\HauntedDorm.exp
^E:\intern\Game\lonnuocngot\HauntedDorm\win32-build\HauntedDorm.vcxproj
E:\intern\Game\lonnuocngot\HauntedDorm\win32-build\Debug\HauntedDorm.lib
E:\intern\Game\lonnuocngot\HauntedDorm\win32-build\Debug\HauntedDorm.exp
^E:\intern\Game\lonnuocngot\HauntedDorm\win32-build\HauntedDorm.vcxproj
E:\intern\Game\lonnuocngot\HauntedDorm\win32-build\Debug\HauntedDorm.lib
E:\intern\Game\lonnuocngot\HauntedDorm\win32-build\Debug\HauntedDorm.exp
^E:\intern\Game\lonnuocngot\HauntedDorm\win32-build\HauntedDorm.vcxproj
E:\intern\Game\lonnuocngot\HauntedDorm\win32-build\Debug\HauntedDorm.lib
E:\intern\Game\lonnuocngot\HauntedDorm\win32-build\Debug\HauntedDorm.exp
^E:\intern\Game\lonnuocngot\HauntedDorm\win32-build\HauntedDorm.vcxproj
E:\intern\Game\lonnuocngot\HauntedDorm\win32-build\Debug\HauntedDorm.lib
E:\intern\Game\lonnuocngot\HauntedDorm\win32-build\Debug\HauntedDorm.exp
^E:\intern\Game\lonnuocngot\HauntedDorm\win32-build\HauntedDorm.vcxproj
E:\intern\Game\lonnuocngot\HauntedDorm\win32-build\Debug\HauntedDorm.lib
E:\intern\Game\lonnuocngot\HauntedDorm\win32-build\Debug\HauntedDorm.exp
^E:\intern\Game\lonnuocngot\HauntedDorm\win32-build\HauntedDorm.vcxproj
E:\intern\Game\lonnuocngot\HauntedDorm\win32-build\Debug\HauntedDorm.lib
E:\intern\Game\lonnuocngot\HauntedDorm\win32-build\Debug\HauntedDorm.exp
^E:\intern\Game\lonnuocngot\HauntedDorm\win32-build\HauntedDorm.vcxproj
E:\intern\Game\lonnuocngot\HauntedDorm\win32-build\Debug\HauntedDorm.lib
E:\intern\Game\lonnuocngot\HauntedDorm\win32-build\Debug\HauntedDorm.exp
^E:\intern\Game\lonnuocngot\HauntedDorm\win32-build\HauntedDorm.vcxproj
E:\intern\Game\lonnuocngot\HauntedDorm\win32-build\Debug\HauntedDorm.lib
E:\intern\Game\lonnuocngot\HauntedDorm\win32-build\Debug\HauntedDorm.exp
^E:\intern\Game\lonnuocngot\HauntedDorm\win32-build\HauntedDorm.vcxproj
E:\intern\Game\lonnuocngot\HauntedDorm\win32-build\Debug\HauntedDorm.lib
E:\intern\Game\lonnuocngot\HauntedDorm\win32-build\Debug\HauntedDorm.exp
^E:\intern\Game\lonnuocngot\HauntedDorm\win32-build\HauntedDorm.vcxproj
E:\intern\Game\lonnuocngot\HauntedDorm\win32-build\Debug\HauntedDorm.lib
E:\intern\Game\lonnuocngot\HauntedDorm\win32-build\Debug\HauntedDorm.exp
^E:\intern\Game\lonnuocngot\HauntedDorm\win32-build\HauntedDorm.vcxproj
E:\intern\Game\lonnuocngot\HauntedDorm\win32-build\Debug\HauntedDorm.lib
E:\intern\Game\lonnuocngot\HauntedDorm\win32-build\Debug\HauntedDorm.exp
^E:\intern\Game\lonnuocngot\HauntedDorm\win32-build\HauntedDorm.vcxproj
E:\intern\Game\lonnuocngot\HauntedDorm\win32-build\Debug\HauntedDorm.lib
E:\intern\Game\lonnuocngot\HauntedDorm\win32-build\Debug\HauntedDorm.exp
^E:\intern\Game\lonnuocngot\HauntedDorm\win32-build\HauntedDorm.vcxproj
E:\intern\Game\lonnuocngot\HauntedDorm\win32-build\Debug\HauntedDorm.lib
E:\intern\Game\lonnuocngot\HauntedDorm\win32-build\Debug\HauntedDorm.exp
^E:\intern\Game\lonnuocngot\HauntedDorm\win32-build\HauntedDorm.vcxproj
E:\intern\Game\lonnuocngot\HauntedDorm\win32-build\Debug\HauntedDorm.lib
E:\intern\Game\lonnuocngot\HauntedDorm\win32-build\Debug\HauntedDorm.exp
^E:\intern\Game\lonnuocngot\HauntedDorm\win32-build\HauntedDorm.vcxproj
E:\intern\Game\lonnuocngot\HauntedDorm\win32-build\Debug\HauntedDorm.lib
E:\intern\Game\lonnuocngot\HauntedDorm\win32-build\Debug\HauntedDorm.exp
^E:\intern\Game\lonnuocngot\HauntedDorm\win32-build\HauntedDorm.vcxproj
E:\intern\Game\lonnuocngot\HauntedDorm\win32-build\Debug\HauntedDorm.lib
E:\intern\Game\lonnuocngot\HauntedDorm\win32-build\Debug\HauntedDorm.exp
^E:\intern\Game\lonnuocngot\HauntedDorm\win32-build\HauntedDorm.vcxproj
E:\intern\Game\lonnuocngot\HauntedDorm\win32-build\Debug\HauntedDorm.lib
E:\intern\Game\lonnuocngot\HauntedDorm\win32-build\Debug\HauntedDorm.exp
^E:\intern\Game\lonnuocngot\HauntedDorm\win32-build\HauntedDorm.vcxproj
E:\intern\Game\lonnuocngot\HauntedDorm\win32-build\Debug\HauntedDorm.lib
E:\intern\Game\lonnuocngot\HauntedDorm\win32-build\Debug\HauntedDorm.exp
^E:\intern\Game\lonnuocngot\HauntedDorm\win32-build\HauntedDorm.vcxproj
E:\intern\Game\lonnuocngot\HauntedDorm\win32-build\Debug\HauntedDorm.lib
E:\intern\Game\lonnuocngot\HauntedDorm\win32-build\Debug\HauntedDorm.exp
^E:\intern\Game\lonnuocngot\HauntedDorm\win32-build\HauntedDorm.vcxproj
E:\intern\Game\lonnuocngot\HauntedDorm\win32-build\Debug\HauntedDorm.lib
E:\intern\Game\lonnuocngot\HauntedDorm\win32-build\Debug\HauntedDorm.exp
^E:\intern\Game\lonnuocngot\HauntedDorm\win32-build\HauntedDorm.vcxproj
E:\intern\Game\lonnuocngot\HauntedDorm\win32-build\Debug\HauntedDorm.lib
E:\intern\Game\lonnuocngot\HauntedDorm\win32-build\Debug\HauntedDorm.exp
^E:\intern\Game\lonnuocngot\HauntedDorm\win32-build\HauntedDorm.vcxproj
E:\intern\Game\lonnuocngot\HauntedDorm\win32-build\Debug\HauntedDorm.lib
E:\intern\Game\lonnuocngot\HauntedDorm\win32-build\Debug\HauntedDorm.exp
^E:\intern\Game\lonnuocngot\HauntedDorm\win32-build\HauntedDorm.vcxproj
E:\intern\Game\lonnuocngot\HauntedDorm\win32-build\Debug\HauntedDorm.lib
E:\intern\Game\lonnuocngot\HauntedDorm\win32-build\Debug\HauntedDorm.exp
^E:\intern\Game\lonnuocngot\HauntedDorm\win32-build\HauntedDorm.vcxproj
E:\intern\Game\lonnuocngot\HauntedDorm\win32-build\Debug\HauntedDorm.lib
E:\intern\Game\lonnuocngot\HauntedDorm\win32-build\Debug\HauntedDorm.exp
^E:\intern\Game\lonnuocngot\HauntedDorm\win32-build\HauntedDorm.vcxproj
E:\intern\Game\lonnuocngot\HauntedDorm\win32-build\Debug\HauntedDorm.lib
E:\intern\Game\lonnuocngot\HauntedDorm\win32-build\Debug\HauntedDorm.exp
^E:\intern\Game\lonnuocngot\HauntedDorm\win32-build\HauntedDorm.vcxproj
E:\intern\Game\lonnuocngot\HauntedDorm\win32-build\Debug\HauntedDorm.lib
E:\intern\Game\lonnuocngot\HauntedDorm\win32-build\Debug\HauntedDorm.exp
^E:\intern\Game\lonnuocngot\HauntedDorm\win32-build\HauntedDorm.vcxproj
E:\intern\Game\lonnuocngot\HauntedDorm\win32-build\Debug\HauntedDorm.lib
E:\intern\Game\lonnuocngot\HauntedDorm\win32-build\Debug\HauntedDorm.exp
^E:\intern\Game\lonnuocngot\HauntedDorm\win32-build\HauntedDorm.vcxproj
E:\intern\Game\lonnuocngot\HauntedDorm\win32-build\Debug\HauntedDorm.lib
E:\intern\Game\lonnuocngot\HauntedDorm\win32-build\Debug\HauntedDorm.exp
^E:\intern\Game\lonnuocngot\HauntedDorm\win32-build\HauntedDorm.vcxproj
E:\intern\Game\lonnuocngot\HauntedDorm\win32-build\Debug\HauntedDorm.lib
E:\intern\Game\lonnuocngot\HauntedDorm\win32-build\Debug\HauntedDorm.exp
^E:\intern\Game\lonnuocngot\HauntedDorm\win32-build\HauntedDorm.vcxproj
E:\intern\Game\lonnuocngot\HauntedDorm\win32-build\Debug\HauntedDorm.lib
E:\intern\Game\lonnuocngot\HauntedDorm\win32-build\Debug\HauntedDorm.exp
^E:\intern\Game\lonnuocngot\HauntedDorm\win32-build\HauntedDorm.vcxproj
E:\intern\Game\lonnuocngot\HauntedDorm\win32-build\Debug\HauntedDorm.lib
E:\intern\Game\lonnuocngot\HauntedDorm\win32-build\Debug\HauntedDorm.exp
^E:\intern\Game\lonnuocngot\HauntedDorm\win32-build\HauntedDorm.vcxproj
E:\intern\Game\lonnuocngot\HauntedDorm\win32-build\Debug\HauntedDorm.lib
E:\intern\Game\lonnuocngot\HauntedDorm\win32-build\Debug\HauntedDorm.exp
^E:\intern\Game\lonnuocngot\HauntedDorm\win32-build\HauntedDorm.vcxproj
E:\intern\Game\lonnuocngot\HauntedDorm\win32-build\Debug\HauntedDorm.lib
E:\intern\Game\lonnuocngot\HauntedDorm\win32-build\Debug\HauntedDorm.exp
^E:\intern\Game\lonnuocngot\HauntedDorm\win32-build\HauntedDorm.vcxproj
E:\intern\Game\lonnuocngot\HauntedDorm\win32-build\Debug\HauntedDorm.lib
E:\intern\Game\lonnuocngot\HauntedDorm\win32-build\Debug\HauntedDorm.exp
^E:\intern\Game\lonnuocngot\HauntedDorm\win32-build\HauntedDorm.vcxproj
E:\intern\Game\lonnuocngot\HauntedDorm\win32-build\Debug\HauntedDorm.lib
E:\intern\Game\lonnuocngot\HauntedDorm\win32-build\Debug\HauntedDorm.exp
^E:\intern\Game\lonnuocngot\HauntedDorm\win32-build\HauntedDorm.vcxproj
E:\intern\Game\lonnuocngot\HauntedDorm\win32-build\Debug\HauntedDorm.lib
E:\intern\Game\lonnuocngot\HauntedDorm\win32-build\Debug\HauntedDorm.exp
^E:\intern\Game\lonnuocngot\HauntedDorm\win32-build\HauntedDorm.vcxproj
E:\intern\Game\lonnuocngot\HauntedDorm\win32-build\Debug\HauntedDorm.lib
E:\intern\Game\lonnuocngot\HauntedDorm\win32-build\Debug\HauntedDorm.exp
^E:\intern\Game\lonnuocngot\HauntedDorm\win32-build\HauntedDorm.vcxproj
E:\intern\Game\lonnuocngot\HauntedDorm\win32-build\Debug\HauntedDorm.lib
E:\intern\Game\lonnuocngot\HauntedDorm\win32-build\Debug\HauntedDorm.exp
^E:\intern\Game\lonnuocngot\HauntedDorm\win32-build\HauntedDorm.vcxproj
E:\intern\Game\lonnuocngot\HauntedDorm\win32-build\Debug\HauntedDorm.lib
E:\intern\Game\lonnuocngot\HauntedDorm\win32-build\Debug\HauntedDorm.exp
^E:\intern\Game\lonnuocngot\HauntedDorm\win32-build\HauntedDorm.vcxproj
E:\intern\Game\lonnuocngot\HauntedDorm\win32-build\Debug\HauntedDorm.lib
E:\intern\Game\lonnuocngot\HauntedDorm\win32-build\Debug\HauntedDorm.exp
^E:\intern\Game\lonnuocngot\HauntedDorm\win32-build\HauntedDorm.vcxproj
E:\intern\Game\lonnuocngot\HauntedDorm\win32-build\Debug\HauntedDorm.lib
E:\intern\Game\lonnuocngot\HauntedDorm\win32-build\Debug\HauntedDorm.exp
^E:\intern\Game\lonnuocngot\HauntedDorm\win32-build\HauntedDorm.vcxproj
E:\intern\Game\lonnuocngot\HauntedDorm\win32-build\Debug\HauntedDorm.lib
E:\intern\Game\lonnuocngot\HauntedDorm\win32-build\Debug\HauntedDorm.exp
^E:\intern\Game\lonnuocngot\HauntedDorm\win32-build\HauntedDorm.vcxproj
E:\intern\Game\lonnuocngot\HauntedDorm\win32-build\Debug\HauntedDorm.lib
E:\intern\Game\lonnuocngot\HauntedDorm\win32-build\Debug\HauntedDorm.exp
^E:\intern\Game\lonnuocngot\HauntedDorm\win32-build\HauntedDorm.vcxproj
E:\intern\Game\lonnuocngot\HauntedDorm\win32-build\Debug\HauntedDorm.lib
E:\intern\Game\lonnuocngot\HauntedDorm\win32-build\Debug\HauntedDorm.exp
^E:\intern\Game\lonnuocngot\HauntedDorm\win32-build\HauntedDorm.vcxproj
E:\intern\Game\lonnuocngot\HauntedDorm\win32-build\Debug\HauntedDorm.lib
E:\intern\Game\lonnuocngot\HauntedDorm\win32-build\Debug\HauntedDorm.exp
^E:\intern\Game\lonnuocngot\HauntedDorm\win32-build\HauntedDorm.vcxproj
E:\intern\Game\lonnuocngot\HauntedDorm\win32-build\Debug\HauntedDorm.lib
E:\intern\Game\lonnuocngot\HauntedDorm\win32-build\Debug\HauntedDorm.exp
^E:\intern\Game\lonnuocngot\HauntedDorm\win32-build\HauntedDorm.vcxproj
E:\intern\Game\lonnuocngot\HauntedDorm\win32-build\Debug\HauntedDorm.lib
E:\intern\Game\lonnuocngot\HauntedDorm\win32-build\Debug\HauntedDorm.exp
^E:\intern\Game\lonnuocngot\HauntedDorm\win32-build\HauntedDorm.vcxproj
E:\intern\Game\lonnuocngot\HauntedDorm\win32-build\Debug\HauntedDorm.lib
E:\intern\Game\lonnuocngot\HauntedDorm\win32-build\Debug\HauntedDorm.exp
^E:\intern\Game\lonnuocngot\HauntedDorm\win32-build\HauntedDorm.vcxproj
E:\intern\Game\lonnuocngot\HauntedDorm\win32-build\Debug\HauntedDorm.lib
E:\intern\Game\lonnuocngot\HauntedDorm\win32-build\Debug\HauntedDorm.exp
^E:\intern\Game\lonnuocngot\HauntedDorm\win32-build\HauntedDorm.vcxproj
E:\intern\Game\lonnuocngot\HauntedDorm\win32-build\Debug\HauntedDorm.lib
E:\intern\Game\lonnuocngot\HauntedDorm\win32-build\Debug\HauntedDorm.exp
^E:\intern\Game\lonnuocngot\HauntedDorm\win32-build\HauntedDorm.vcxproj
E:\intern\Game\lonnuocngot\HauntedDorm\win32-build\Debug\HauntedDorm.lib
E:\intern\Game\lonnuocngot\HauntedDorm\win32-build\Debug\HauntedDorm.exp
^E:\intern\Game\lonnuocngot\HauntedDorm\win32-build\HauntedDorm.vcxproj
E:\intern\Game\lonnuocngot\HauntedDorm\win32-build\Debug\HauntedDorm.lib
E:\intern\Game\lonnuocngot\HauntedDorm\win32-build\Debug\HauntedDorm.exp
^E:\intern\Game\lonnuocngot\HauntedDorm\win32-build\HauntedDorm.vcxproj
E:\intern\Game\lonnuocngot\HauntedDorm\win32-build\Debug\HauntedDorm.lib
E:\intern\Game\lonnuocngot\HauntedDorm\win32-build\Debug\HauntedDorm.exp
^E:\intern\Game\lonnuocngot\HauntedDorm\win32-build\HauntedDorm.vcxproj
E:\intern\Game\lonnuocngot\HauntedDorm\win32-build\Debug\HauntedDorm.lib
E:\intern\Game\lonnuocngot\HauntedDorm\win32-build\Debug\HauntedDorm.exp
^E:\intern\Game\lonnuocngot\HauntedDorm\win32-build\HauntedDorm.vcxproj
E:\intern\Game\lonnuocngot\HauntedDorm\win32-build\Debug\HauntedDorm.lib
E:\intern\Game\lonnuocngot\HauntedDorm\win32-build\Debug\HauntedDorm.exp
^E:\intern\Game\lonnuocngot\HauntedDorm\win32-build\HauntedDorm.vcxproj
E:\intern\Game\lonnuocngot\HauntedDorm\win32-build\Debug\HauntedDorm.lib
E:\intern\Game\lonnuocngot\HauntedDorm\win32-build\Debug\HauntedDorm.exp
^E:\intern\Game\lonnuocngot\HauntedDorm\win32-build\HauntedDorm.vcxproj
E:\intern\Game\lonnuocngot\HauntedDorm\win32-build\Debug\HauntedDorm.lib
E:\intern\Game\lonnuocngot\HauntedDorm\win32-build\Debug\HauntedDorm.exp
^E:\intern\Game\lonnuocngot\HauntedDorm\win32-build\HauntedDorm.vcxproj
E:\intern\Game\lonnuocngot\HauntedDorm\win32-build\Debug\HauntedDorm.lib
E:\intern\Game\lonnuocngot\HauntedDorm\win32-build\Debug\HauntedDorm.exp
^E:\intern\Game\lonnuocngot\HauntedDorm\win32-build\HauntedDorm.vcxproj
E:\intern\Game\lonnuocngot\HauntedDorm\win32-build\Debug\HauntedDorm.lib
E:\intern\Game\lonnuocngot\HauntedDorm\win32-build\Debug\HauntedDorm.exp
^E:\intern\Game\lonnuocngot\HauntedDorm\win32-build\HauntedDorm.vcxproj
E:\intern\Game\lonnuocngot\HauntedDorm\win32-build\Debug\HauntedDorm.lib
E:\intern\Game\lonnuocngot\HauntedDorm\win32-build\Debug\HauntedDorm.exp
^E:\intern\Game\lonnuocngot\HauntedDorm\win32-build\HauntedDorm.vcxproj
E:\intern\Game\lonnuocngot\HauntedDorm\win32-build\Debug\HauntedDorm.lib
E:\intern\Game\lonnuocngot\HauntedDorm\win32-build\Debug\HauntedDorm.exp
^E:\intern\Game\lonnuocngot\HauntedDorm\win32-build\HauntedDorm.vcxproj
E:\intern\Game\lonnuocngot\HauntedDorm\win32-build\Debug\HauntedDorm.lib
E:\intern\Game\lonnuocngot\HauntedDorm\win32-build\Debug\HauntedDorm.exp
^E:\intern\Game\lonnuocngot\HauntedDorm\win32-build\HauntedDorm.vcxproj
E:\intern\Game\lonnuocngot\HauntedDorm\win32-build\Debug\HauntedDorm.lib
E:\intern\Game\lonnuocngot\HauntedDorm\win32-build\Debug\HauntedDorm.exp
^E:\intern\Game\lonnuocngot\HauntedDorm\win32-build\HauntedDorm.vcxproj
E:\intern\Game\lonnuocngot\HauntedDorm\win32-build\Debug\HauntedDorm.lib
E:\intern\Game\lonnuocngot\HauntedDorm\win32-build\Debug\HauntedDorm.exp
^E:\intern\Game\lonnuocngot\HauntedDorm\win32-build\HauntedDorm.vcxproj
E:\intern\Game\lonnuocngot\HauntedDorm\win32-build\Debug\HauntedDorm.lib
E:\intern\Game\lonnuocngot\HauntedDorm\win32-build\Debug\HauntedDorm.exp
^E:\intern\Game\lonnuocngot\HauntedDorm\win32-build\HauntedDorm.vcxproj
E:\intern\Game\lonnuocngot\HauntedDorm\win32-build\Debug\HauntedDorm.lib
E:\intern\Game\lonnuocngot\HauntedDorm\win32-build\Debug\HauntedDorm.exp
^E:\intern\Game\lonnuocngot\HauntedDorm\win32-build\HauntedDorm.vcxproj
E:\intern\Game\lonnuocngot\HauntedDorm\win32-build\Debug\HauntedDorm.lib
E:\intern\Game\lonnuocngot\HauntedDorm\win32-build\Debug\HauntedDorm.exp
^E:\intern\Game\lonnuocngot\HauntedDorm\win32-build\HauntedDorm.vcxproj
E:\intern\Game\lonnuocngot\HauntedDorm\win32-build\Debug\HauntedDorm.lib
E:\intern\Game\lonnuocngot\HauntedDorm\win32-build\Debug\HauntedDorm.exp
^E:\intern\Game\lonnuocngot\HauntedDorm\win32-build\HauntedDorm.vcxproj
E:\intern\Game\lonnuocngot\HauntedDorm\win32-build\Debug\HauntedDorm.lib
E:\intern\Game\lonnuocngot\HauntedDorm\win32-build\Debug\HauntedDorm.exp
^E:\intern\Game\lonnuocngot\HauntedDorm\win32-build\HauntedDorm.vcxproj
E:\intern\Game\lonnuocngot\HauntedDorm\win32-build\Debug\HauntedDorm.lib
E:\intern\Game\lonnuocngot\HauntedDorm\win32-build\Debug\HauntedDorm.exp
^E:\intern\Game\lonnuocngot\HauntedDorm\win32-build\HauntedDorm.vcxproj
E:\intern\Game\lonnuocngot\HauntedDorm\win32-build\Debug\HauntedDorm.lib
E:\intern\Game\lonnuocngot\HauntedDorm\win32-build\Debug\HauntedDorm.exp
^E:\intern\Game\lonnuocngot\HauntedDorm\win32-build\HauntedDorm.vcxproj
E:\intern\Game\lonnuocngot\HauntedDorm\win32-build\Debug\HauntedDorm.lib
E:\intern\Game\lonnuocngot\HauntedDorm\win32-build\Debug\HauntedDorm.exp
^E:\intern\Game\lonnuocngot\HauntedDorm\win32-build\HauntedDorm.vcxproj
E:\intern\Game\lonnuocngot\HauntedDorm\win32-build\Debug\HauntedDorm.lib
E:\intern\Game\lonnuocngot\HauntedDorm\win32-build\Debug\HauntedDorm.exp
^E:\intern\Game\lonnuocngot\HauntedDorm\win32-build\HauntedDorm.vcxproj
E:\intern\Game\lonnuocngot\HauntedDorm\win32-build\Debug\HauntedDorm.lib
E:\intern\Game\lonnuocngot\HauntedDorm\win32-build\Debug\HauntedDorm.exp
^E:\intern\Game\lonnuocngot\HauntedDorm\win32-build\HauntedDorm.vcxproj
E:\intern\Game\lonnuocngot\HauntedDorm\win32-build\Debug\HauntedDorm.lib
E:\intern\Game\lonnuocngot\HauntedDorm\win32-build\Debug\HauntedDorm.exp
^E:\intern\Game\lonnuocngot\HauntedDorm\win32-build\HauntedDorm.vcxproj
E:\intern\Game\lonnuocngot\HauntedDorm\win32-build\Debug\HauntedDorm.lib
E:\intern\Game\lonnuocngot\HauntedDorm\win32-build\Debug\HauntedDorm.exp
^E:\intern\Game\lonnuocngot\HauntedDorm\win32-build\HauntedDorm.vcxproj
E:\intern\Game\lonnuocngot\HauntedDorm\win32-build\Debug\HauntedDorm.lib
E:\intern\Game\lonnuocngot\HauntedDorm\win32-build\Debug\HauntedDorm.exp
^E:\intern\Game\lonnuocngot\HauntedDorm\win32-build\HauntedDorm.vcxproj
E:\intern\Game\lonnuocngot\HauntedDorm\win32-build\Debug\HauntedDorm.lib
E:\intern\Game\lonnuocngot\HauntedDorm\win32-build\Debug\HauntedDorm.exp
^E:\intern\Game\lonnuocngot\HauntedDorm\win32-build\HauntedDorm.vcxproj
E:\intern\Game\lonnuocngot\HauntedDorm\win32-build\Debug\HauntedDorm.lib
E:\intern\Game\lonnuocngot\HauntedDorm\win32-build\Debug\HauntedDorm.exp
^E:\intern\Game\lonnuocngot\HauntedDorm\win32-build\HauntedDorm.vcxproj
E:\intern\Game\lonnuocngot\HauntedDorm\win32-build\Debug\HauntedDorm.lib
E:\intern\Game\lonnuocngot\HauntedDorm\win32-build\Debug\HauntedDorm.exp
^E:\intern\Game\lonnuocngot\HauntedDorm\win32-build\HauntedDorm.vcxproj
E:\intern\Game\lonnuocngot\HauntedDorm\win32-build\Debug\HauntedDorm.lib
E:\intern\Game\lonnuocngot\HauntedDorm\win32-build\Debug\HauntedDorm.exp
^E:\intern\Game\lonnuocngot\HauntedDorm\win32-build\HauntedDorm.vcxproj
E:\intern\Game\lonnuocngot\HauntedDorm\win32-build\Debug\HauntedDorm.lib
E:\intern\Game\lonnuocngot\HauntedDorm\win32-build\Debug\HauntedDorm.exp
^E:\intern\Game\lonnuocngot\HauntedDorm\win32-build\HauntedDorm.vcxproj
E:\intern\Game\lonnuocngot\HauntedDorm\win32-build\Debug\HauntedDorm.lib
E:\intern\Game\lonnuocngot\HauntedDorm\win32-build\Debug\HauntedDorm.exp
^E:\intern\Game\lonnuocngot\HauntedDorm\win32-build\HauntedDorm.vcxproj
E:\intern\Game\lonnuocngot\HauntedDorm\win32-build\Debug\HauntedDorm.lib
E:\intern\Game\lonnuocngot\HauntedDorm\win32-build\Debug\HauntedDorm.exp
^E:\intern\Game\lonnuocngot\HauntedDorm\win32-build\HauntedDorm.vcxproj
E:\intern\Game\lonnuocngot\HauntedDorm\win32-build\Debug\HauntedDorm.lib
E:\intern\Game\lonnuocngot\HauntedDorm\win32-build\Debug\HauntedDorm.exp
^E:\intern\Game\lonnuocngot\HauntedDorm\win32-build\HauntedDorm.vcxproj
E:\intern\Game\lonnuocngot\HauntedDorm\win32-build\Debug\HauntedDorm.lib
E:\intern\Game\lonnuocngot\HauntedDorm\win32-build\Debug\HauntedDorm.exp
^E:\intern\Game\lonnuocngot\HauntedDorm\win32-build\HauntedDorm.vcxproj
E:\intern\Game\lonnuocngot\HauntedDorm\win32-build\Debug\HauntedDorm.lib
E:\intern\Game\lonnuocngot\HauntedDorm\win32-build\Debug\HauntedDorm.exp
^E:\intern\Game\lonnuocngot\HauntedDorm\win32-build\HauntedDorm.vcxproj
E:\intern\Game\lonnuocngot\HauntedDorm\win32-build\Debug\HauntedDorm.lib
E:\intern\Game\lonnuocngot\HauntedDorm\win32-build\Debug\HauntedDorm.exp
^E:\intern\Game\lonnuocngot\HauntedDorm\win32-build\HauntedDorm.vcxproj
E:\intern\Game\lonnuocngot\HauntedDorm\win32-build\Debug\HauntedDorm.lib
E:\intern\Game\lonnuocngot\HauntedDorm\win32-build\Debug\HauntedDorm.exp
^E:\intern\Game\lonnuocngot\HauntedDorm\win32-build\HauntedDorm.vcxproj
E:\intern\Game\lonnuocngot\HauntedDorm\win32-build\Debug\HauntedDorm.lib
E:\intern\Game\lonnuocngot\HauntedDorm\win32-build\Debug\HauntedDorm.exp
^E:\intern\Game\lonnuocngot\HauntedDorm\win32-build\HauntedDorm.vcxproj
E:\intern\Game\lonnuocngot\HauntedDorm\win32-build\Debug\HauntedDorm.lib
E:\intern\Game\lonnuocngot\HauntedDorm\win32-build\Debug\HauntedDorm.exp
^E:\intern\Game\lonnuocngot\HauntedDorm\win32-build\HauntedDorm.vcxproj
E:\intern\Game\lonnuocngot\HauntedDorm\win32-build\Debug\HauntedDorm.lib
E:\intern\Game\lonnuocngot\HauntedDorm\win32-build\Debug\HauntedDorm.exp
^E:\intern\Game\lonnuocngot\HauntedDorm\win32-build\HauntedDorm.vcxproj
E:\intern\Game\lonnuocngot\HauntedDorm\win32-build\Debug\HauntedDorm.lib
E:\intern\Game\lonnuocngot\HauntedDorm\win32-build\Debug\HauntedDorm.exp
^E:\intern\Game\lonnuocngot\HauntedDorm\win32-build\HauntedDorm.vcxproj
E:\intern\Game\lonnuocngot\HauntedDorm\win32-build\Debug\HauntedDorm.lib
E:\intern\Game\lonnuocngot\HauntedDorm\win32-build\Debug\HauntedDorm.exp
^E:\intern\Game\lonnuocngot\HauntedDorm\win32-build\HauntedDorm.vcxproj
E:\intern\Game\lonnuocngot\HauntedDorm\win32-build\Debug\HauntedDorm.lib
E:\intern\Game\lonnuocngot\HauntedDorm\win32-build\Debug\HauntedDorm.exp
^E:\intern\Game\lonnuocngot\HauntedDorm\win32-build\HauntedDorm.vcxproj
E:\intern\Game\lonnuocngot\HauntedDorm\win32-build\Debug\HauntedDorm.lib
E:\intern\Game\lonnuocngot\HauntedDorm\win32-build\Debug\HauntedDorm.exp
^E:\intern\Game\lonnuocngot\HauntedDorm\win32-build\HauntedDorm.vcxproj
E:\intern\Game\lonnuocngot\HauntedDorm\win32-build\Debug\HauntedDorm.lib
E:\intern\Game\lonnuocngot\HauntedDorm\win32-build\Debug\HauntedDorm.exp
^E:\intern\Game\lonnuocngot\HauntedDorm\win32-build\HauntedDorm.vcxproj
E:\intern\Game\lonnuocngot\HauntedDorm\win32-build\Debug\HauntedDorm.lib
E:\intern\Game\lonnuocngot\HauntedDorm\win32-build\Debug\HauntedDorm.exp
^E:\intern\Game\lonnuocngot\HauntedDorm\win32-build\HauntedDorm.vcxproj
E:\intern\Game\lonnuocngot\HauntedDorm\win32-build\Debug\HauntedDorm.lib
E:\intern\Game\lonnuocngot\HauntedDorm\win32-build\Debug\HauntedDorm.exp
^E:\intern\Game\lonnuocngot\HauntedDorm\win32-build\HauntedDorm.vcxproj
E:\intern\Game\lonnuocngot\HauntedDorm\win32-build\Debug\HauntedDorm.lib
E:\intern\Game\lonnuocngot\HauntedDorm\win32-build\Debug\HauntedDorm.exp
^E:\intern\Game\lonnuocngot\HauntedDorm\win32-build\HauntedDorm.vcxproj
E:\intern\Game\lonnuocngot\HauntedDorm\win32-build\Debug\HauntedDorm.lib
E:\intern\Game\lonnuocngot\HauntedDorm\win32-build\Debug\HauntedDorm.exp
^E:\intern\Game\lonnuocngot\HauntedDorm\win32-build\HauntedDorm.vcxproj
E:\intern\Game\lonnuocngot\HauntedDorm\win32-build\Debug\HauntedDorm.lib
E:\intern\Game\lonnuocngot\HauntedDorm\win32-build\Debug\HauntedDorm.exp
^E:\intern\Game\lonnuocngot\HauntedDorm\win32-build\HauntedDorm.vcxproj
E:\intern\Game\lonnuocngot\HauntedDorm\win32-build\Debug\HauntedDorm.lib
E:\intern\Game\lonnuocngot\HauntedDorm\win32-build\Debug\HauntedDorm.exp
^E:\intern\Game\lonnuocngot\HauntedDorm\win32-build\HauntedDorm.vcxproj
E:\intern\Game\lonnuocngot\HauntedDorm\win32-build\Debug\HauntedDorm.lib
E:\intern\Game\lonnuocngot\HauntedDorm\win32-build\Debug\HauntedDorm.exp
^E:\intern\Game\lonnuocngot\HauntedDorm\win32-build\HauntedDorm.vcxproj
E:\intern\Game\lonnuocngot\HauntedDorm\win32-build\Debug\HauntedDorm.lib
E:\intern\Game\lonnuocngot\HauntedDorm\win32-build\Debug\HauntedDorm.exp
^E:\intern\Game\lonnuocngot\HauntedDorm\win32-build\HauntedDorm.vcxproj
E:\intern\Game\lonnuocngot\HauntedDorm\win32-build\Debug\HauntedDorm.lib
E:\intern\Game\lonnuocngot\HauntedDorm\win32-build\Debug\HauntedDorm.exp
^E:\intern\Game\lonnuocngot\HauntedDorm\win32-build\HauntedDorm.vcxproj
E:\intern\Game\lonnuocngot\HauntedDorm\win32-build\Debug\HauntedDorm.lib
E:\intern\Game\lonnuocngot\HauntedDorm\win32-build\Debug\HauntedDorm.exp
^E:\intern\Game\lonnuocngot\HauntedDorm\win32-build\HauntedDorm.vcxproj
E:\intern\Game\lonnuocngot\HauntedDorm\win32-build\Debug\HauntedDorm.lib
E:\intern\Game\lonnuocngot\HauntedDorm\win32-build\Debug\HauntedDorm.exp
^E:\intern\Game\lonnuocngot\HauntedDorm\win32-build\HauntedDorm.vcxproj
E:\intern\Game\lonnuocngot\HauntedDorm\win32-build\Debug\HauntedDorm.lib
E:\intern\Game\lonnuocngot\HauntedDorm\win32-build\Debug\HauntedDorm.exp
^E:\intern\Game\lonnuocngot\HauntedDorm\win32-build\HauntedDorm.vcxproj
E:\intern\Game\lonnuocngot\HauntedDorm\win32-build\Debug\HauntedDorm.lib
E:\intern\Game\lonnuocngot\HauntedDorm\win32-build\Debug\HauntedDorm.exp
^E:\intern\Game\lonnuocngot\HauntedDorm\win32-build\HauntedDorm.vcxproj
E:\intern\Game\lonnuocngot\HauntedDorm\win32-build\Debug\HauntedDorm.lib
E:\intern\Game\lonnuocngot\HauntedDorm\win32-build\Debug\HauntedDorm.exp
^E:\intern\Game\lonnuocngot\HauntedDorm\win32-build\HauntedDorm.vcxproj
E:\intern\Game\lonnuocngot\HauntedDorm\win32-build\Debug\HauntedDorm.lib
E:\intern\Game\lonnuocngot\HauntedDorm\win32-build\Debug\HauntedDorm.exp
^E:\intern\Game\lonnuocngot\HauntedDorm\win32-build\HauntedDorm.vcxproj
E:\intern\Game\lonnuocngot\HauntedDorm\win32-build\Debug\HauntedDorm.lib
E:\intern\Game\lonnuocngot\HauntedDorm\win32-build\Debug\HauntedDorm.exp
^E:\intern\Game\lonnuocngot\HauntedDorm\win32-build\HauntedDorm.vcxproj
E:\intern\Game\lonnuocngot\HauntedDorm\win32-build\Debug\HauntedDorm.lib
E:\intern\Game\lonnuocngot\HauntedDorm\win32-build\Debug\HauntedDorm.exp
^E:\intern\Game\lonnuocngot\HauntedDorm\win32-build\HauntedDorm.vcxproj
E:\intern\Game\lonnuocngot\HauntedDorm\win32-build\Debug\HauntedDorm.lib
E:\intern\Game\lonnuocngot\HauntedDorm\win32-build\Debug\HauntedDorm.exp
^E:\intern\Game\lonnuocngot\HauntedDorm\win32-build\HauntedDorm.vcxproj
E:\intern\Game\lonnuocngot\HauntedDorm\win32-build\Debug\HauntedDorm.lib
E:\intern\Game\lonnuocngot\HauntedDorm\win32-build\Debug\HauntedDorm.exp
^E:\intern\Game\lonnuocngot\HauntedDorm\win32-build\HauntedDorm.vcxproj
E:\intern\Game\lonnuocngot\HauntedDorm\win32-build\Debug\HauntedDorm.lib
E:\intern\Game\lonnuocngot\HauntedDorm\win32-build\Debug\HauntedDorm.exp
^E:\intern\Game\lonnuocngot\HauntedDorm\win32-build\HauntedDorm.vcxproj
E:\intern\Game\lonnuocngot\HauntedDorm\win32-build\Debug\HauntedDorm.lib
E:\intern\Game\lonnuocngot\HauntedDorm\win32-build\Debug\HauntedDorm.exp
^E:\intern\Game\lonnuocngot\HauntedDorm\win32-build\HauntedDorm.vcxproj
E:\intern\Game\lonnuocngot\HauntedDorm\win32-build\Debug\HauntedDorm.lib
E:\intern\Game\lonnuocngot\HauntedDorm\win32-build\Debug\HauntedDorm.exp
^E:\intern\Game\lonnuocngot\HauntedDorm\win32-build\HauntedDorm.vcxproj
E:\intern\Game\lonnuocngot\HauntedDorm\win32-build\Debug\HauntedDorm.lib
E:\intern\Game\lonnuocngot\HauntedDorm\win32-build\Debug\HauntedDorm.exp
^E:\intern\Game\lonnuocngot\HauntedDorm\win32-build\HauntedDorm.vcxproj
E:\intern\Game\lonnuocngot\HauntedDorm\win32-build\Debug\HauntedDorm.lib
E:\intern\Game\lonnuocngot\HauntedDorm\win32-build\Debug\HauntedDorm.exp
^E:\intern\Game\lonnuocngot\HauntedDorm\win32-build\HauntedDorm.vcxproj
E:\intern\Game\lonnuocngot\HauntedDorm\win32-build\Debug\HauntedDorm.lib
E:\intern\Game\lonnuocngot\HauntedDorm\win32-build\Debug\HauntedDorm.exp
^E:\intern\Game\lonnuocngot\HauntedDorm\win32-build\HauntedDorm.vcxproj
E:\intern\Game\lonnuocngot\HauntedDorm\win32-build\Debug\HauntedDorm.lib
E:\intern\Game\lonnuocngot\HauntedDorm\win32-build\Debug\HauntedDorm.exp
^E:\intern\Game\lonnuocngot\HauntedDorm\win32-build\HauntedDorm.vcxproj
E:\intern\Game\lonnuocngot\HauntedDorm\win32-build\Debug\HauntedDorm.lib
E:\intern\Game\lonnuocngot\HauntedDorm\win32-build\Debug\HauntedDorm.exp
^E:\intern\Game\lonnuocngot\HauntedDorm\win32-build\HauntedDorm.vcxproj
E:\intern\Game\lonnuocngot\HauntedDorm\win32-build\Debug\HauntedDorm.lib
E:\intern\Game\lonnuocngot\HauntedDorm\win32-build\Debug\HauntedDorm.exp
